<?xml version="1.0" encoding="UTF-8" standalone="no"?>
<svg width="120px" height="120px" viewBox="0 0 120 120" version="1.1" xmlns="http://www.w3.org/2000/svg" xmlns:xlink="http://www.w3.org/1999/xlink">
	<g transform="translate(0.000000,135.000000) scale(0.100000,-0.100000)" fill="#000000" stroke="none">
		<path d="M333 1269 c-32 -9 -33 -11 -33 -69 0 -33 4 -60 9 -60 6 0 20 18 32
	40 48 84 166 95 234 20 14 -15 19 -36 19 -73 0 -89 -75 -182 -227 -282 -31
	-21 -60 -36 -63 -33 -3 3 -23 52 -45 109 -46 122 -48 162 -6 167 15 2 27 8 27
	13 0 5 -50 9 -115 9 -63 0 -115 -2 -115 -5 0 -2 18 -9 40 -15 31 -8 44 -19 59
	-48 18 -36 111 -257 111 -265 0 -2 -18 -23 -40 -48 -101 -111 -136 -264 -91
	-397 29 -86 61 -134 121 -181 81 -64 147 -85 270 -85 95 -1 111 2 168 28 78
	36 162 123 186 192 20 60 21 177 0 236 -18 56 -72 121 -114 138 -16 7 -30 17
	-30 22 0 5 32 90 71 188 73 186 95 220 145 220 12 0 26 5 29 10 4 6 -42 10
	-129 10 -89 0 -136 -4 -136 -11 0 -5 3 -8 8 -6 4 3 18 1 31 -4 29 -11 29 -8
	-50 -223 l-60 -164 -52 -7 c-93 -13 -97 -16 -97 -85 0 -33 4 -60 10 -60 6 0
	10 11 10 24 0 32 43 82 76 90 15 4 29 5 31 2 6 -6 -109 -316 -118 -316 -11 0
	-141 329 -134 340 4 6 48 42 99 79 158 118 215 197 216 299 0 90 -49 157 -143
	197 -40 17 -152 19 -204 4z m65 -819 c95 -220 113 -260 123 -260 6 0 70 149
	147 345 19 49 39 94 44 99 11 13 63 -38 96 -94 23 -39 27 -56 27 -125 -1 -95
	-30 -169 -90 -230 -61 -60 -136 -90 -225 -89 -125 1 -225 63 -270 167 -28 64
	-38 187 -20 243 12 36 78 139 86 132 1 -2 39 -87 82 -188z" />
	</g>
</svg>