{
    "compilerOptions": {
        "experimentalDecorators": true,
        "baseUrl": ".",
        "paths": {
            "c/asyncJs": [
                "asyncJs/asyncJs.js"
            ],
            "c/lwcFilterRecords": [
                "lwcFilterRecords/lwcFilterRecords.js"
            ],
            "c/lwcPagination": [
                "lwcPagination/lwcPagination.js"
            ],
            "c/punchh_scheduleHistory": [
                "punchh_scheduleHistory/punchh_scheduleHistory.js"
            ]
        }
    },
    "include": [
        "**/*",
        "../../../../.sfdx/typings/lwc/**/*.d.ts"
    ],
    "typeAcquisition": {
        "include": [
            "jest"
        ]
    },
    "paths": {
        "c/*": [
            "*"
        ]
    }
}
